Mat Object: 3 MPI processes
  type: mpiaij
row 0: (0, 1.)  (1, 2.)  (3, 3.) 
row 1: (1, 4.)  (2, 5.)  (5, 6.) 
row 2: (0, 7.)  (2, 8.)  (4, 9.) 
row 3: (1, 10.)  (2, 11.)  (3, 12.)  (5, 13.) 
row 4: (1, 14.)  (2, 15.)  (5, 16.) 
row 5: (0, 17.)  (5, 18.) 
Mat Object: 3 MPI processes
  type: mpiaij
row 0: (0, 10.)  (1, 20.)  (3, 30.) 
row 1: (1, 40.)  (2, 50.)  (5, 60.) 
row 2: (0, 70.)  (2, 80.)  (4, 90.) 
row 3: (1, 100.)  (2, 110.)  (3, 120.)  (5, 130.) 
row 4: (1, 140.)  (2, 150.)  (5, 160.) 
row 5: (0, 170.)  (5, 180.) 
Mat Object: 3 MPI processes
  type: mpiaij
row 0: (0, 1.)  (1, 2.)  (3, 3.) 
row 1: (1, 4.)  (2, 5.)  (5, 6.) 
row 2: (0, 7.)  (2, 8.)  (4, 9.) 
row 3: (1, 10.)  (2, 11.)  (3, 12.)  (5, 13.) 
row 4: (1, 14.)  (2, 15.)  (5, 16.) 
row 5: (0, 17.)  (5, 18.) 
Mat Object: 3 MPI processes
  type: mpiaij
row 0: (0, 10.)  (1, 20.)  (3, 30.) 
row 1: (1, 40.)  (2, 50.)  (5, 60.) 
row 2: (0, 70.)  (2, 80.)  (4, 90.) 
row 3: (1, 100.)  (2, 110.)  (3, 120.)  (5, 130.) 
row 4: (1, 140.)  (2, 150.)  (5, 160.) 
row 5: (0, 170.)  (5, 180.) 
