DM Object: Generated Mesh 1 MPI process
  type: plex
Generated Mesh in 2 dimensions:
  Number of 0-cells per rank: 142
  Number of 1-cells per rank: 383
  Number of 2-cells per rank: 242
Labels:
  celltype: 3 strata with value/size (0 (142), 3 (242), 1 (383))
  depth: 3 strata with value/size (0 (142), 1 (383), 2 (242))
  Cell Sets: 1 strata with value/size (9 (242))
  Face Sets: 8 strata with value/size (5 (10), 1 (10), 8 (10), 2 (10), 7 (10), 3 (10), 6 (10), 4 (10))
  Vertex Sets: 4 strata with value/size (1 (1), 2 (1), 3 (1), 4 (1))
