DM Object: Generated Mesh 1 MPI process
  type: plex
Generated Mesh in 2 dimensions:
  Number of 0-cells per rank: 250
  Number of 1-cells per rank: 445
  Number of 2-cells per rank: 196
Labels:
  celltype: 3 strata with value/size (0 (250), 4 (196), 1 (445))
  depth: 3 strata with value/size (0 (250), 1 (445), 2 (196))
  Cell Sets: 1 strata with value/size (6 (196))
  Face Sets: 5 strata with value/size (2 (53), 1 (49), 3 (53), 4 (53), 5 (4))
  Vertex Sets: 1 strata with value/size (1 (1))
